
Incompressible laminar flow over the airfoil


i   delta_c     theta_c     H_c     cf_c    x/c    Retheta      lambda

1 0.000446 0.000047 2.310052 0.000498 0.000322 14.024179 0.091748
2 -nan 0.000034 2.229844 0.001268 0.000894 17.217188 0.122262
3 0.000119 0.000014 2.506808 0.004610 0.001777 15.025672 0.028666
4 0.000219 0.000024 2.381183 0.004294 0.003007 35.889777 0.067358
5 0.000273 0.000027 2.277821 0.005488 0.004621 50.625061 0.103570
6 0.000183 0.000021 2.431379 0.007237 0.006653 47.276955 0.051311
7 0.000269 0.000029 2.327939 0.006388 0.009117 69.535745 0.085410
8 0.000214 0.000024 2.410349 0.008077 0.012012 68.753934 0.057929
9 0.000258 0.000030 2.457749 0.006536 0.015371 90.238661 0.043209
10 0.000292 0.000034 2.466641 0.006000 0.019310 108.097679 0.040524
11 0.000329 0.000038 2.489992 0.005324 0.023982 128.068797 0.033578
12 0.000376 0.000044 2.517157 0.004555 0.029567 151.819123 0.025680
13 0.000431 0.000050 2.543849 0.003855 0.036254 178.389470 0.018098
14 0.000495 0.000058 2.571534 0.003214 0.044211 208.331433 0.010409
15 0.000568 0.000067 2.598124 0.002671 0.053594 240.958853 0.003181
16 0.000649 0.000077 2.622118 0.002225 0.064541 276.290548 -0.003139
17 0.000736 0.000088 2.642592 0.001879 0.077039 312.963488 -0.008191
18 0.000827 0.000098 2.657593 0.001617 0.090903 350.338126 -0.011663
19 0.000916 0.000109 2.662792 0.001438 0.105827 386.603593 -0.012823
20 0.001003 0.000120 2.663146 0.001307 0.121548 421.367963 -0.012902
21 0.001086 0.000129 2.656706 0.001217 0.137852 454.219087 -0.011463
22 0.001164 0.000138 2.644219 0.001160 0.154596 484.930509 -0.008577
23 0.001236 0.000147 2.629628 0.001122 0.171676 513.449862 -0.005036
24 0.001304 0.000155 2.614706 0.001095 0.189011 540.034031 -0.001213
25 0.001366 0.000162 2.597139 0.001083 0.206544 564.754031 0.003446
26 0.001424 0.000168 2.579660 0.001077 0.224236 587.587289 0.008184
27 0.001477 0.000174 2.563867 0.001073 0.242060 608.929038 0.012521
28 0.001526 0.000179 2.548482 0.001072 0.259997 628.870160 0.016799
29 0.001571 0.000184 2.533384 0.001075 0.278033 647.592623 0.021050
30 0.001611 0.000188 2.524734 0.001069 0.296159 665.132116 0.023510
31 0.001650 0.000192 2.517429 0.001062 0.314366 682.322800 0.025602
32 0.001687 0.000196 2.507797 0.001062 0.332648 698.552152 0.028379
33 0.001720 0.000200 2.503774 0.001053 0.350989 714.238931 0.029547
34 0.001750 0.000203 2.503309 0.001040 0.369372 729.616912 0.029682
35 0.001778 0.000207 2.508163 0.001018 0.387789 744.842699 0.028273
36 0.001805 0.000210 2.516620 0.000990 0.406241 760.339052 0.025834
37 0.001831 0.000214 2.530823 0.000953 0.424740 776.027933 0.021776
38 0.001857 0.000218 2.555555 0.000899 0.443287 792.523480 0.014826
39 0.001886 0.000223 2.587625 0.000832 0.461875 810.129987 0.006017
40 0.001918 0.000228 2.632409 0.000748 0.480488 828.993878 -0.005726
41 0.001957 0.000234 2.701133 0.000644 0.499117 849.722130 -0.020776
42 0.002007 0.000241 2.813138 0.000517 0.517763 872.470533 -0.039192
43 0.002085 0.000249 3.011998 0.000579 0.536430 0.000000 -0.060887
44 0.002226 0.000258 3.367647 0.000878 0.555117 0.000000 -0.082875
45 0.002418 0.000268 3.741433 0.001307 0.573821 0.000000 -0.095789
46 0.002458 0.000278 3.575211 0.002136 0.592538 0.000000 -0.090848
47 -nan 0.000287 1.375694 0.002675 0.611266 0.000000 -0.242624
48 -nan 0.000315 1.892655 0.002966 0.630004 0.000000 -0.514210
49 -nan 0.000350 1.913996 0.003424 0.648751 0.000000 -0.560104
50 -nan 0.000376 1.898566 0.003720 0.667502 0.000000 -0.525885
51 -nan 0.000405 1.945565 0.003851 0.686255 0.000000 -0.653217
52 -nan 0.000440 1.982779 0.003910 0.705012 0.000000 -0.834729
53 -nan 0.000481 2.007292 0.003980 0.723780 0.000000 -1.045733
54 -nan 0.000528 2.023610 0.003938 0.742560 0.000000 -1.275272
55 -nan 0.000580 2.034830 0.003903 0.761336 0.000000 -1.514842
56 -nan 0.000637 2.042557 0.003871 0.780088 0.000000 -1.748604
57 -nan 0.000698 2.047715 0.003843 0.798819 0.000000 -1.954551
58 -nan 0.000760 2.050999 0.003817 0.817558 0.000000 -2.115641
59 -nan 0.000824 2.051288 0.003793 0.836311 0.000000 -2.131178
60 -nan 0.000881 2.058062 0.003768 0.855041 0.000000 -2.581727
61 -nan 0.000967 1.953126 0.003751 0.873723 0.000000 0.306048
62 -nan 0.000871 2.010569 0.003693 0.892372 0.000000 -1.084067
63 -nan 0.001042 2.065990 0.003698 0.910956 0.000000 -3.461257
64 -nan 0.001020 2.196447 0.003662 0.929323 0.000000 0.579446
65 0.008734 0.001017 2.512864 0.003632 0.947231 0.000000 0.688734
66 0.019940 0.000991 11.071284 0.003600 0.964244 0.000000 1.677971
67 0.051561 0.000947 32.305116 0.003567 0.979641 0.000000 2.765114
68 0.214655 0.000884 148.214219 0.003534 0.992704 0.000000 5.641299
69 0.384654 0.000782 301.300179 0.003499 1.000000 0.000000 7.916262
