
Incompressible laminar flow over the airfoil


i  s[i]     Rex          x/c	 interm_fact      Cf (turbulent skin friction coefficient)n
1 0.004702 1410.935100 0.000322 0.000000 0.000498
2 0.008722 4404.587524 0.000894 0.000000 0.001268
3 0.012188 13255.505067 0.001777 0.000000 0.004610
4 0.015198 22456.975178 0.003007 0.000000 0.004294
5 0.018910 35080.116953 0.004621 0.000000 0.005488
6 0.020977 47858.685996 0.006653 0.000000 0.007237
7 0.023648 57255.891225 0.009117 0.000000 0.006388
8 0.026592 76128.695282 0.012012 0.000000 0.008077
9 0.029953 91491.801239 0.015371 0.000000 0.006536
10 0.033901 109318.224596 0.019310 0.000000 0.006000
11 0.038613 130003.164054 0.023982 0.000000 0.005324
12 0.044283 153466.459165 0.029567 0.000000 0.004555
13 0.051101 180586.246213 0.036254 0.000000 0.003855
14 0.059231 211560.700264 0.044211 0.000000 0.003214
15 0.068819 246929.766880 0.053594 0.000000 0.002671
16 0.079986 286861.023827 0.064541 0.000000 0.002225
17 0.092699 331444.658195 0.077039 0.000000 0.001879
18 0.106754 379809.653206 0.090903 0.000000 0.001617
19 0.121831 431338.173904 0.105827 0.000000 0.001438
20 0.137662 485197.778602 0.121548 0.000000 0.001307
21 0.154035 540876.405570 0.137852 0.000000 0.001217
22 0.170815 598165.584260 0.154596 0.000000 0.001160
23 0.187907 656965.928298 0.171676 0.000000 0.001122
24 0.205243 717077.960688 0.189011 0.000000 0.001095
25 0.222778 778489.230825 0.206544 0.000000 0.001083
26 0.240485 841325.948051 0.224236 0.000000 0.001077
27 0.258349 905455.327064 0.242060 0.000000 0.001073
28 0.276359 970939.669078 0.259997 0.000000 0.001072
29 0.294509 1037774.347850 0.278033 0.000000 0.001075
30 0.312797 1106062.564339 0.296159 0.000000 0.001069
31 0.331216 1175198.183740 0.314366 0.000000 0.001062
32 0.349762 1245721.045401 0.332648 0.000000 0.001062
33 0.368424 1317329.376472 0.350989 0.000000 0.001053
34 0.387156 1389625.964755 0.369372 0.000000 0.001040
35 0.405969 1462524.554799 0.387789 0.000000 0.001018
36 0.424848 1535506.561446 0.406241 0.000000 0.000990
37 0.443795 1608591.761542 0.424740 0.000000 0.000953
38 0.462800 1681020.543752 0.443287 0.000000 0.000899
39 0.481846 1752223.370123 0.461875 0.000000 0.000832
40 0.500905 1821740.575874 0.480488 0.000000 0.000748
41 0.519957 1888627.628987 0.499117 0.000000 0.000644

Estimated Length of the Transition Zone (measured along the panels): lamda_trans = 0.062082
Distance of Transition point from the stagnation point (measured along the panels)= 0.538993

42 0.538993 1952471.214155 0.517763 0.000000 0.000517
43 0.558011 2012505.933893 0.536430 0.037924 0.000579
44 0.577003 2068606.492517 0.555117 0.143101 0.000878
45 0.595961 2121252.347149 0.573821 0.293137 0.001307
46 0.614881 2173431.616735 0.592538 0.459691 0.002136
47 0.633761 2227732.004498 0.611266 0.617118 0.002675
48 0.652603 2234486.391532 0.630004 0.748356 0.002966
49 0.671441 2229372.547329 0.648751 0.846682 0.003424
50 0.690207 2244451.241743 0.667502 0.913212 0.003720
51 0.709078 2255060.492187 0.686255 0.954608 0.003851
52 0.728033 2258031.035979 0.705012 0.978074 0.003910
53 0.746807 2253820.082192 0.723780 1.000000 0.003980
54 0.765616 2244665.105992 0.742560 1.000000 0.003938
55 0.784462 2232256.756972 0.761336 1.000000 0.003903
56 0.803342 2218837.839840 0.780088 1.000000 0.003871
57 0.822280 2205847.921770 0.798819 1.000000 0.003843
58 0.841317 2195432.599640 0.817558 1.000000 0.003817
59 0.860465 2188015.628478 0.836311 1.000000 0.003793
60 0.879763 2189553.783520 0.855041 1.000000 0.003768
61 0.899135 2170629.559446 0.873723 1.000000 0.003751
62 0.918634 2297980.521826 0.892372 1.000000 0.003693
63 0.938136 2212489.841194 0.910956 1.000000 0.003698
64 0.957802 2276284.604670 0.929323 1.000000 0.003662
65 0.977047 2325450.246219 0.947231 1.000000 0.003632
66 0.995500 2390873.229935 0.964244 1.000000 0.003600
67 1.012347 2470482.069077 0.979641 1.000000 0.003567
68 1.026751 2564958.677519 0.992704 1.000000 0.003534
69 1.034841 2693516.059542 1.000000 1.000000 0.003499
