0.224236	-0.157091 
0.206544	-0.159452 
0.189011	-0.161335 
0.171676	-0.162609 
0.154596	-0.163125 
0.137852	-0.162712 
0.121548	-0.161183 
0.105827	-0.158354 
0.090903	-0.154077 
0.077039	-0.148298 
0.064541	-0.141140 
0.053594	-0.132879 
0.044211	-0.123854 
0.036254	-0.114353 
0.029567	-0.104648 
0.023982	-0.094964 
0.019310	-0.085415 
0.015371	-0.076017 
0.012012	-0.066706 
0.009117	-0.057385 
0.006653	-0.048127 
0.004621	-0.037949 
0.003007	-0.030629 
0.001777	-0.022707 
0.000894	-0.015444 
0.000322	-0.008835 
0.000036	-0.002795 
0.000036	0.002625 
