0.224236	-0.157091 
0.242060	-0.154361 
0.259997	-0.151352 
0.278033	-0.148138 
0.296159	-0.144779 
0.314366	-0.141323 
0.332648	-0.137805 
0.350989	-0.134303 
0.369372	-0.130696 
0.387789	-0.127139 
